Model 3
…
data %>% 
  select(sch_name)

## # A tibble: 1,894 x 1
##    sch_name                       
##    <chr>                          
##  1 Crooked River Elementary School
##  2 Marcola Elementary School      
##  3 Stoller Middle School          
##  4 Whiteaker Middle School        
##  5 Amity Elementary School        
##  6 Terra Linda Elementary School  
##  7 Hillside Elementary            
##  8 Dorena School                  
##  9 Athey Creek Middle School      
## 10 East Elementary School         
## # … with 1,884 more rows
…
