Model 1
…
## i Fold10: model 4/5 (predictions)

## i Fold10: model 5/5

## ✓ Fold10: model 5/5

## i Fold10: model 5/5 (predictions)

tictoc::toc()

## 21.972 sec elapsed

collect_metrics(final_mod_tuning)

## # A tibble: 100 x 8
##          penalty mixture .metric .estimator   mean     n std_err .config
##            <dbl>   <dbl> <chr>   <chr>       <dbl> <int>   <dbl> <chr>  
##  1 0.0000000001        0 rmse    standard   96.5      10  3.65   Model01
##  2 0.0000000001        0 rsq     standard    0.365    10  0.0223 Model01
##  3 0.00000000129       0 rmse    standard   96.5      10  3.65   Model02
##  4 0.00000000129       0 rsq     standard    0.365    10  0.0223 Model02
##  5 0.0000000167        0 rmse    standard   96.5      10  3.65   Model03
##  6 0.0000000167        0 rsq     standard    0.365    10  0.0223 Model03
##  7 0.000000215         0 rmse    standard   96.5      10  3.65   Model04
##  8 0.000000215         0 rsq     standard    0.365    10  0.0223 Model04
##  9 0.00000278          0 rmse    standard   96.5      10  3.65   Model05
## 10 0.00000278          0 rsq     standard    0.365    10  0.0223 Model05
## # … with 90 more rows
…
